---M---MESSAGE LENGTH---	1000000,49508178,2551236338,49.508178,100.17664912031614
The	990546,4950736,29967910,4.9979869688030645,5.274056920138779
brown	990525,4950133,29958831,4.99748416243911,5.270558270142402
dog	990569,4953995,30004097,5.001160948909162,5.278148887062642
fox	990465,4949040,29950330,4.996683375990065,5.271810821069025
jumped	990410,4948969,29949313,4.99688916711261,5.270406614961349
lazy	990590,4951392,29973120,4.998427199951544,5.273571860787538
over	990409,4951412,29972606,4.999360870105178,5.269247952543626
quick	990297,4951490,29988244,5.000005048990354,5.282020444346241
sir	990338,4950748,29978504,4.999048809598339,5.28049322956268
the	990486,4950263,29967089,4.9978121851293205,5.276807808495196
